%YAML 1.1
%TAG !u! tag:unity3d.com,2011:
--- !u!114 &11400000
MonoBehaviour:
  m_ObjectHideFlags: 0
  m_CorrespondingSourceObject: {fileID: 0}
  m_PrefabInstance: {fileID: 0}
  m_PrefabAsset: {fileID: 0}
  m_GameObject: {fileID: 0}
  m_Enabled: 1
  m_EditorHideFlags: 0
  m_Script: {fileID: 11500000, guid: 655e6bad9abbc4e44915811cf04ce9c7, type: 3}
  m_Name: BasicUnit
  m_EditorClassIdentifier: 
  m_sprite: {fileID: 0}
  m_name: Basic Unit
  m_description: This is a basic unit.
  m_level: 1
  m_currentHealth: 100
  m_currentMana: 100
  m_healthRegen: 5
  m_manaRegen: 5
  m_startStats:
    MaxHealth: 100
    MaxMana: 100
    Strength: 10
    Defense: 1
    CritRate: 0.1
    CritDamage: 1.5
  m_statsPerLevel:
    MaxHealth: 10
    MaxMana: 10
    Strength: 1
    Defense: 0.5
    CritRate: 0.005
    CritDamage: 0.05
  m_skills:
  - {fileID: 11400000, guid: 249a03bed24392d43b5db8f302a4736a, type: 2}
  - {fileID: 0}
  - {fileID: 0}
