%YAML 1.1
%TAG !u! tag:unity3d.com,2011:
--- !u!114 &11400000
MonoBehaviour:
  m_ObjectHideFlags: 0
  m_CorrespondingSourceObject: {fileID: 0}
  m_PrefabInstance: {fileID: 0}
  m_PrefabAsset: {fileID: 0}
  m_GameObject: {fileID: 0}
  m_Enabled: 1
  m_EditorHideFlags: 0
  m_Script: {fileID: 11500000, guid: 371f78cbca7df074eb2c66fc211c50e2, type: 3}
  m_Name: BoxOfBashing
  m_EditorClassIdentifier: 
  m_sprite: {fileID: 21300000, guid: a0735bb0920a49b44ae9d283c1077481, type: 3}
  m_name: Box of Bashing
  m_description: Fear this box for it shall bash you.
  m_manaCost: 30
  m_multiplier: 0
  m_prefab: {fileID: 0}
