%YAML 1.1
%TAG !u! tag:unity3d.com,2011:
--- !u!114 &11400000
MonoBehaviour:
  m_ObjectHideFlags: 0
  m_CorrespondingSourceObject: {fileID: 0}
  m_PrefabInstance: {fileID: 0}
  m_PrefabAsset: {fileID: 0}
  m_GameObject: {fileID: 0}
  m_Enabled: 1
  m_EditorHideFlags: 0
  m_Script: {fileID: 11500000, guid: bbb281ee3bf0b054c82ac2347e9e782c, type: 3}
  m_Name: RemoteAssets
  m_EditorClassIdentifier: 
  m_GroupName: RemoteAssets
  m_Data:
    m_SerializedData: []
  m_GUID: c55446afd92ea5142bc614e720d7e4ff
  m_SerializeEntries:
  - m_GUID: 092b9c6c3811fa245887eab7a19c1431
    m_Address: Sprites/diamond
    m_ReadOnly: 0
    m_SerializedLabels:
    - Rounded
    m_MainAsset: {fileID: 0}
    m_TargetAsset: {fileID: 0}
  - m_GUID: a0735bb0920a49b44ae9d283c1077481
    m_Address: Sprites/square
    m_ReadOnly: 0
    m_SerializedLabels:
    - Edged
    m_MainAsset: {fileID: 0}
    m_TargetAsset: {fileID: 0}
  - m_GUID: 578ad3dae0c371e458cea4faa1a2533a
    m_Address: Sprites/circle
    m_ReadOnly: 0
    m_SerializedLabels:
    - Edged
    m_MainAsset: {fileID: 0}
    m_TargetAsset: {fileID: 0}
  - m_GUID: de656a20faac96044ad1b23c73e2f11b
    m_Address: Prefabs/Debris
    m_ReadOnly: 0
    m_SerializedLabels:
    - Obstacles
    m_MainAsset: {fileID: 0}
    m_TargetAsset: {fileID: 0}
  - m_GUID: f1c3593bbe77e4744b60d0725154e8ec
    m_Address: Prefabs/Debris Variant
    m_ReadOnly: 0
    m_SerializedLabels:
    - Obstacles
    m_MainAsset: {fileID: 0}
    m_TargetAsset: {fileID: 0}
  m_ReadOnly: 0
  m_Settings: {fileID: 11400000, guid: d7b72df0eebb06b49acce364a3e014ea, type: 2}
  m_SchemaSet:
    m_Schemas:
    - {fileID: 11400000, guid: b6fdae539b3bdd743b5ca63a93fb1b76, type: 2}
    - {fileID: 11400000, guid: 11372905fd959284d874d1a7577f4887, type: 2}
